{
  "dataFormat": "EXTENDED_JSON",
  "users": [
    {
      "_id" : {
        "$oid": "587402bdfe719f9ed5fce04b"
      },
      "name" : "test",
      "email" : "joe@dd.com",
      "apiKey" : "587402bdfe719f9ed5fce04b",
      "age" : {
        "$numberLong":"26"
      },
      "pkgId" :  {
        "$oid": "5884c9ece11e7b2380641280"
      },
      "config" : {
        "baseUrl" : "http://www.google.co.uk",
        "brands" : [
          "Boots.com",
          "The Fragrance Shop",
          "Superdrug.com",
          "fragrancedirect.co.uk",
          "Perfume Click",
          "House of Fraser",
          "John Lewis",
          "Debenhams",
          "Selfridges",
          "Escentual",
          "Scentstore",
          "Life & Looks",
          "feelunique.com"
        ]
      }
    }
  ]
}